Open Case Studies: Exploring global patterns of obesity across rural and urban regions
…
Now we can see that Country is always the odd rows and the rest of the data is the rest of the rows. We can select the odd rows using the  Modulus (Remainder from division) operator. This operator looks like this %%. All odd values such as 3, 7, or 15 when divided by 2 would leave a remainder of 1. We will select just these rows using the filter() function of dplyr.

country <-tibble(country_split) %>% 
  dplyr::filter(row_number() %% 2 == 1) 

We can take a look to make sure that all the country names look as expected:

country

# A tibble: 200 x 1
   country_split      
   <chr>              
 1 Afghanistan        
 2 Albania            
 3 Algeria            
 4 American Samoa     
 5 Andorra            
 6 Angola             
 7 Antigua and Barbuda
 8 Argentina          
 9 Armenia            
10 Australia          
# … with 190 more rows
…
# interesting...the spread of difference is much broader for women than for men 
# some women in some countries especially need help with obesity
# while other countries are actually showing a loss of BMI
# these countries are the points on our previous plot with a difference below 0

#Let's see who:
BMI_diff_long %>% 
  arrange(Difference)

# A tibble: 1,200 x 4
   Country        Sex   Type                Difference
   <chr>          <chr> <chr>                    <dbl>
 1 Greece         Women Rural_difference        -1.5  
 2 Greece         Women National_difference     -1.3  
 3 Greece         Women Urban_difference        -1.20 
 4 Italy          Women Rural_difference        -1.10 
 5 Czech Republic Women Rural_difference        -0.8  
 6 Spain          Women Rural_difference        -0.800
 7 Lithuania      Women Urban_difference        -0.700
 8 Spain          Women Urban_difference        -0.700
 9 Lithuania      Women National_difference     -0.700
10 Spain          Women National_difference     -0.700
# … with 1,190 more rows
…
